http://170.130.59.52:3128
http://173.234.165.100:3128
http://173.234.250.201:3128
http://173.234.165.31:3128
http://170.130.59.194:3128
http://173.234.250.18:3128
http://173.234.165.183:3128
http://173.208.91.97:3128